com\ncedu\ecare\datamodel\Client.class
com\ncedu\ecare\implementation\ServiceImpl.class
com\ncedu\ecare\datamodel\SalesOrder.class
com\ncedu\ecare\implementation\AbstractEntityImpl.class
com\ncedu\ecare\datamodel\CharacteristicId.class
com\ncedu\ecare\datamodel\Phone.class
com\ncedu\ecare\implementation\DataImpl.class
com\ncedu\ecare\implementation\PhoneImpl.class
com\ncedu\ecare\implementation\SalesOrderImpl.class
com\ncedu\ecare\datamodel\Product.class
com\ncedu\ecare\implementation\DataObjectFactory.class
com\ncedu\ecare\implementation\CharacteristicImpl.class
com\ncedu\ecare\implementation\AccessoryImpl.class
com\ncedu\ecare\datamodel\ObjectTypeId.class
com\ncedu\ecare\datamodel\AbstractEntity.class
com\ncedu\ecare\datamodel\Data.class
com\ncedu\ecare\datamodel\Characteristic.class
com\ncedu\ecare\implementation\ClientImpl.class
com\ncedu\ecare\datamodel\Accessory.class
com\ncedu\ecare\datamodel\CharType.class
com\ncedu\ecare\datamodel\Service.class
com\ncedu\ecare\implementation\ProductImpl.class
com\ncedu\ecare\implementation\CharacteristicImpl$1.class
